{
    "Queuing has never been so simple": {
        "ru": "Организация очередей еще никогда не была настолько простой"
    },
    "Log in": {
        "ru": "Вход"
    },
    "Log out": {
        "ru": "Выйти"
    },
    "Register": {
        "ru": "Регистрация"
    },
    "Username": {
        "ru": "Логин"
    },
    "Password": {
        "ru": "Пароль"
    },
    "Display name": {
        "ru": "Отображаемое имя"
    },
    "Repeat password": {
        "ru": "Повторите пароль"
    },
    "Cancel": {
        "ru": "Отмена"
    },
    "Join a queue": {
        "ru": "Присоединиться к очереди"
    },
    "Take a tour": {
        "ru": "Взглянуть на функционал"
    },
    "Please input your Username!": {
        "ru": "Пожалуйста, введите ваш Логин!"
    },
    "Please input your Password!": {
        "ru": "Пожалуйста, введите ваш Пароль!"
    },
    "Please confirm your password!": {
        "ru": "Пожалуйста, подтвердите ваш пароль!"
    },
    "The new password that you entered do not match!": {
        "ru": "Пароли не совпадают!"
    },
    "Registration failed!": {
        "ru": "Регистрация не удалась!"
    },
    "Login failed!": {
        "ru": "Вход не удался!"
    },
    "Language": {
        "ru": "Язык"
    },
    "Create queue": {
        "ru": "Создать очередь"
    },
    "My queues": {
        "ru": "Мои очереди"
    },
    "Settings": {
        "ru": "Настройки"
    },
    "Dashboard": {
        "ru": "Панель управления"
    },
    "Page not found": {
        "ru": "Страница не найдена"
    },
    "You have no queues! Create one here": {
        "ru": "У вас нет очередей! Создайте новую"
    },
    "Log in first": {
        "ru": "Сначала войдите в аккаунт"
    },
    "New queue": {
        "ru": "Новая очередь"
    },
    "Create": {
        "ru": "Создать"
    },
    "Name": {
        "ru": "Название"
    },
    "Description": {
        "ru": "Описание"
    },
    "(optional)": {
        "ru": "(опционально)"
    },
    "Queue created": {
        "ru": "Очередь создана"
    },
    "Failed to create queue": {
        "ru": "Не удалось создать очередь"
    },
    "News": {
        "ru": "Новости"
    },
    "BETA! Be aware about loosing ALL your data here, as well as unexpected service shutdowns, bugs and other beta's features :)": {
        "ru" : "БЕТА! Помните, что ВСЕ ваши данные здесь могут быть утеряны, сервер может прилечь на неизвестное количество времени, ну и про баги-фичи тоже не забывайте :)"
    },
    "Captcha": {
        "ru": "Капча"
    },
    "Captcha prompt": {
        "ru": "Ввод капчи"
    },
    "Please enter captcha!": {
        "ru": "Пожалуйста, введите капчу!"
    },
    "Fetch captcha": {
        "ru": "Загрузить капчу"
    },
    "Invalid captcha": {
        "ru": "Неверная капча"
    },
    "YOU": {
        "ru": "ВЫ"
    },
    "Current queues": {
        "ru": "Текущие очереди"
    },
    "Queues you are in": {
        "ru": "Очереди, в которых вы участвуете"
    },
    "Queue participants": {
        "ru": "Участники очереди"
    },
    "Anonymous": {
        "ru": "Аноним"
    },
    "Join": {
        "ru": "Присоединиться"
    },
    "QR-code scanner in development": {
        "ru": "Сканер QR-кодов в разработке"
    },
    "OR": {
        "ru": "ИЛИ"
    },
    "Join queue by link or id": {
        "ru": "Присоединиться к очереди по ссылке или айди"
    },
    "You are not parting in any queues!": {
        "ru": "Вы не принимаете участие ни в одной очереди!"
    },
    "Created": {
        "ru": "Создана"
    },
    "Waiting": {
        "ru": "Ожидает"
    },
    "In progress": {
        "ru": "В процессе"
    },
    "Finished": {
        "ru": "Завершена"
    },
    "Kick first": {
        "ru": "Кикнуть первого"
    },
    "It is your turn!": {
        "ru": "Сейчас ваша очередь!"
    },
    "Start queue": {
        "ru": "Начать очередь"
    },
    "Copy join link": {
        "ru": "Скопировать ссылку для вступления"
    },
    "Show QR-code": {
        "ru": "Показать QR-код"
    },
    "Hide QR-code": {
        "ru": "Спрятать QR-код"
    },
    "Copied!": {
        "ru": "Скопировано!"
    },
    "Pass": {
        "ru": "Пройти очередь"
    },
    "Leave": {
        "ru": "Покинуть очередь"
    },
    "Queue not found": {
        "ru": "Очередь не найдена"
    },
    "Update your name": {
        "ru": "Обновите свое имя"
    },
    "Enter new name": {
        "ru": "Введите новое имя"
    },
    "Update": {
        "ru": "Обновить"
    },
    "Successfully joined queue": {
        "ru": "Успешное присоединение к очереди"
    },
    "Successfully changed name": {
        "ru": "Успешное изменение имени"
    },
    "Already joined": {
        "ru": "Вы уже присоединились к этой очереди"
    }
}
